config 226.52.237.221 [SOURCE_COMP] 0.02 $#%#$
stopMusic $#%#$
delay 0.2 $#%#$
forkbomb $#%#$
delay 0.5 $#%#$
clearTerminal $#%#$
delay 1 $#%#$
writel SECURITY TRAP  $#%#$
delay 0.2 $#%#$
writel $#%#$
delay 0.2 $#%#$
writel $#%#$
delay 0.2 $#%#$
writel ------------------------------------------- $#%#$
delay 0.2 $#%#$
writel $#%#$
delay 0.2 $#%#$
writel TARGETTING IP ADDRESS: 226.52.237.221 $#%#$
delay 0.2 $#%#$
writel $#%#$
delay 0.2 $#%#$
writel ------------------------------------------- $#%#$
delay 0.2 $#%#$
writel $#%#$
delay 0.2 $#%#$
writel $#%#$
delay 0.2 $#%#$
write Please standby$#%#$
delay 0.2 $#%#$
write .$#%#$
delay 0.2 $#%#$
write .$#%#$
delay 0.2 $#%#$
write .$#%#$
delay 0.2 $#%#$
write .$#%#$
delay 0.2 $#%#$
write .$#%#$
delay 0.5 $#%#$
writel_silent $#%#$
writel_silent $#%#$
writel_silent $#%#$
writel_silent $#%#$
writel_silent $#%#$
writel_silent $#%#$
writel_silent $#%#$
writel_silent $#%#$
writel_silent $#%#$
writel_silent $#%#$
writel_silent $#%#$
writel_silent $#%#$
writel_silent $#%#$
writel_silent $#%#$
writel_silent $#%#$
writel_silent $#%#$
writel_silent $#%#$
writel_silent $#%#$
writel_silent $#%#$
writel_silent $#%#$
writel_silent $#%#$
writel_silent $#%#$
writel_silent $#%#$
writel_silent $#%#$
writel_silent $#%#$
writel_silent $#%#$
writel_silent $#%#$
writel_silent $#%#$
writel_silent $#%#$
writel_silent $#%#$
writel_silent $#%#$
writel_silent $#%#$
writel_silent $#%#$
writel_silent $#%#$
writel_silent $#%#$
writel_silent $#%#$
writel_silent $#%#$
writel_silent $#%#$
writel_silent $#%#$
writel_silent $#%#$
writel_silent $#%#$
writel_silent $#%#$
writel_silent $#%#$
writel_silent $#%#$
writel_silent $#%#$
writel_silent $#%#$
writel_silent $#%#$
writel_silent $#%#$
writel_silent $#%#$
writel_silent $#%#$
writel_silent $#%#$
writel_silent $#%#$
writel_silent $#%#$
writel_silent $#%#$
writel_silent $#%#$
writel_silent $#%#$
writel_silent $#%#$
writel_silent $#%#$
writel_silent $#%#$
writel_silent $#%#$
writel_silent $#%#$
writel_silent $#%#$
writel_silent $#%#$
writel_silent $#%#$
writel_silent $#%#$
writel_silent $#%#$
writel_silent $#%#$
writel_silent $#%#$
writel_silent $#%#$
writel_silent $#%#$
writel_silent $#%#$
writel_silent $#%#$
writel_silent $#%#$
writel_silent $#%#$
writel_silent $#%#$
writel_silent $#%#$
writel_silent $#%#$
writel_silent $#%#$
writel_silent $#%#$
writel_silent $#%#$
writel_silent $#%#$
writel_silent $#%#$
writel_silent $#%#$
writel_silent $#%#$
writel_silent $#%#$
writel_silent $#%#$
writel_silent $#%#$
writel_silent $#%#$
writel_silent $#%#$
writel_silent $#%#$
writel_silent $#%#$
writel_silent $#%#$
writel_silent $#%#$
writel_silent $#%#$
writel_silent $#%#$
writel_silent $#%#$
writel_silent $#%#$
writel_silent $#%#$
writel_silent $#%#$
writel_silent $#%#$
writel_silent $#%#$
